<?xml version="1.0" encoding="iso-8859-1"?>
<!-- Generator: Adobe Illustrator 17.1.0, SVG Export Plug-In . SVG Version: 6.00 Build 0)  -->
<!DOCTYPE svg PUBLIC "-//W3C//DTD SVG 1.1//EN" "http://www.w3.org/Graphics/SVG/1.1/DTD/svg11.dtd">
<svg version="1.1"
	 id="svg4329" xmlns:dc="http://purl.org/dc/elements/1.1/" xmlns:cc="http://creativecommons.org/ns#" xmlns:rdf="http://www.w3.org/1999/02/22-rdf-syntax-ns#" xmlns:svg="http://www.w3.org/2000/svg"
	 xmlns="http://www.w3.org/2000/svg" xmlns:xlink="http://www.w3.org/1999/xlink" x="0px" y="0px" viewBox="-350 -155.6 1000 400"
	 style="enable-background:new -350 -155.6 1000 400;" xml:space="preserve">
<g id="layer1" transform="translate(-67.882237,-318.2255)">
	<g id="g200" transform="matrix(0,3.8062854,3.8062854,0,314.46863,373.86959)">
		<path id="path202" style="fill:#7DC242;" d="M6.8,58l-25.9,7.8l25.9,7.8V58z M15.3,1.1v-4.8h-35.8V1c0,7.2,3,15.1,17.8,15.1
			C10.4,16.2,15.3,9.1,15.3,1.1 M6.8-125.2l-26.2,7.9l26.2,7.8V-125.2z M-39.1,79.9V53.2L5.2,38c-3.7,0.7-6.6,0.8-7.9,0.8
			c-18.6,0-36.4-10.6-36.4-35.5v-28.5L5-25.1c-12.5-2.5-15.9-13.8-20.2-28c-1.6-5.3-4.2-8.2-6.7-7.2c-2.1,0.9-2.8,4.1-2.2,8.1
			c0.8,6,2.9,10.8,5.4,15.4l-15.7,6.3c-0.7-1.4-6.9-11.7-6.9-24.5c0-17.9,8.7-29.3,21.7-29.3c11.5,0,18.2,7.1,22,20.1
			c4,13.9,5.7,17.5,9.7,17.1c3.5-0.4,7.7-9-5.4-30.2l13.1-6.3L-39.1-103v-26.7l73.3-25.2v21.1l-10.4,3.3v26.5l10.4,3.1v22.1L27-81.3
			c4.3,7.5,8.3,16.7,8.3,27.8c0,16.9-9.3,26.1-18.3,28.3h17.1V3.3c0,17-8.1,25.9-16.9,30.5L34.2,28v21l-10.4,3.4v26.5L34.2,82v22.1
			L-39.1,79.9"/>
	</g>
</g>
</svg>
