<?xml version="1.0" encoding="utf-8"?>
<!-- Generator: Adobe Illustrator 17.1.0, SVG Export Plug-In . SVG Version: 6.00 Build 0)  -->
<!DOCTYPE svg PUBLIC "-//W3C//DTD SVG 1.1//EN" "http://www.w3.org/Graphics/SVG/1.1/DTD/svg11.dtd">
<svg version="1.1" id="Layer_1" xmlns="http://www.w3.org/2000/svg" xmlns:xlink="http://www.w3.org/1999/xlink" x="0px" y="0px"
	 viewBox="0 0 1000 400" enable-background="new 0 0 1000 400" xml:space="preserve">
<g>
	<path fill="#0B6132" d="M312.9,133.5c2,0,2,1.7,2,4.1c0,30.7,0,61.4,0,92.5c0,4.8-1.7,6.5-6.5,6.1c-2.4-0.3-5.1,0-7.5,0
		c-3.8,0.3-6.5-0.7-6.5-5.1c-13.7,10.6-32.1,8.5-42-4.1c-11.9-15.4-9.2-44,5.5-56.7c8.9-7.5,19.1-8.9,30-4.4c1.4,0.7,2.4,2,4.8,1.7
		c0-8.5,0-17.4,0-25.9c0-7.2,0-7.9,6.8-7.5C303.1,134.2,307.5,133.5,312.9,133.5C314,133.5,311.9,133.5,312.9,133.5z M293.2,200.4
		c0-4.1,0-7.9,0-11.9c0-1.4,0-2.7-1-4.1c-5.1-5.5-16-4.4-19.8,1.7c-5.5,8.9-5.1,18.1-1,27.3c2.4,5.1,7.9,7.2,13.7,5.8
		c6.8-1.7,8.5-3.8,8.5-11.3C293.2,205.9,293.2,203.1,293.2,200.4z"/>
	<path fill="#0B6132" d="M175.4,267.3c-1.7-2.7-1.7-15,0-16.7s4.1-1,6.1-0.7c9.9,0.7,14.3-1.7,18.1-10.6c1-2,1-4.1,0-6.1
		c-8.2-20.1-16.4-40.3-24.2-60.8c-2.4-6.1-1.7-6.8,4.4-6.8c17.7-0.3,17.7-0.3,23.2,16.4c3.1,8.9,5.8,18.1,9.2,28.7
		c4.1-13.3,7.9-25.3,11.3-36.9c2.4-8.2,2.4-8.2,11.3-8.2c2.7,0,5.8,0,8.5,0c4.1-0.3,5.1,1.7,3.8,5.5c-9.9,25.6-19.8,50.9-29.7,76.5
		c-4.1,10.6-11.9,16.7-22.5,19.8C188.4,267.3,181.9,267.3,175.4,267.3z"/>
	<path fill="#95C23D" d="M922.6,267.3c-2.7-3.1-2.7-14.3-0.3-17.1c1.7-1.7,3.8-0.7,5.5-0.7c9.6,1,14-1.4,18.1-9.6
		c1.4-2.7,1-5.1,0-7.5c-8.2-19.8-16-39.9-23.9-59.7c-2.4-6.1-2-7.2,4.8-6.8c21.2,0.3,15.7-3.8,22.5,16c3.1,9.2,5.8,18.1,9.2,28.7
		c3.4-11.3,6.8-21.5,9.9-31.4c4.8-15.7,2.4-13.3,18.1-13.3c2.7,0,5.8-0.7,8.2,1.7c0,1,0,2,0,3.1c-1.7,1-2,3.1-2.4,4.4
		c-8.5,21.8-17.1,43.3-25.3,65.5c-4.8,13-11.6,23.6-25.9,27C934.9,267.3,928.7,267.3,922.6,267.3z"/>
	<path fill="#0B6132" d="M5.4,140.7c0-4.8,2-4.4,20.5-4.4c3.1,0,2.4,3.8,2.4,6.1c0,15,0,29.7,0,44.7c0,8.5,0,16.7,0,25.3
		c0,3.4,1,4.4,4.4,4.1c8.9-0.3,17.7,0,27,0c4.4,0,6.1,1.7,7.2,5.8c3.4,14.3,3.4,13.7-11.3,13.7c-14.3,0-28.7,0-43,0
		c-2.4,0-4.8-0.3-7.2-1C5.4,202.5,5.4,173.4,5.4,140.7z"/>
	<path fill="#0B6132" d="M96.9,138c0,31.4,0,62.5,0,93.5c0,3.8-1.4,5.1-5.1,4.8c-4.4-0.3-8.5-0.3-13,0c-3.4,0-4.4-1.4-4.4-4.4
		c0-30.7,0-61.1,0-91.8c0-3.8,1.7-5.8,5.5-5.8C93.1,134.2,96.9,133.5,96.9,138"/>
	<path fill="#95C23D" d="M686,170.7c7.5-5.1,15.4-7.9,24.2-6.5c4.4,0.7,8.5,2.4,11.3,5.8c2.4,3.1,4.1,2.4,6.8,0.3
		c7.9-5.5,16.4-7.5,25.9-6.1c9.6,1.7,16,7.9,18.1,17.4c1.7,8.9,0.7,17.7,1,26.6c0,7.5,0,15,0,22.5c0,3.8-1.4,5.1-5.1,5.1
		c-20.1-0.3-16.4,2.7-16.7-15.4c0-8.9,0-17.4,0-26.3c0-4.1,0.3-8.9-5.1-10.6c-4.4-1.4-14.7,2-16.7,5.5c-1,1.4-0.3,3.1-0.7,4.8
		c0,11.9,0,23.9,0,36.2c0,4.8-1.4,6.8-6.5,6.5c-14,0-14,0-14-14.3c0-9.2,0-18.4,0-27.3c0-4.1,0.3-8.9-4.8-10.9
		c-4.1-1.7-13,1.4-15.7,5.1c-1,1.4-0.7,3.1-0.7,4.8c0,12.3,0,24.2,0,36.5c0,4.4-1.4,6.5-6.1,6.5c-15.7,0-15.7,0.3-15.7-15.4
		c0-16,0.3-32.1,0-48.5c0-5.5,2-7.2,6.8-6.5c2.4,0.3,4.8,0,6.8,0C682.6,165.3,685.7,165.9,686,170.7z"/>
	<path fill="#95C23D" d="M386,185.7c0-14.3,0.3-29,0-43.3c0-5.1,1.7-6.5,6.5-6.5c11.9,0.7,23.9-1,35.8,1c18.1,3.1,27.6,14,28,31.1
		c0,17.7-10.2,30-27.6,33.8c-5.5,1-10.6,1-16,1c-3.1,0-3.8,1-3.8,3.8c0,8.2,0,16,0,24.2c0,4.1-1.7,5.8-5.8,5.8
		c-20.8-0.3-17.1,2.7-17.1-16.7C385.7,208.3,386,197,386,185.7z M408.9,169c0,1.7,0,3.1,0,4.8c0.3,3.4-1.7,8.5,1,10.2
		c3.8,2.4,8.9,1.4,13.7,0c6.5-2,10.2-7.9,9.6-15.4c-0.3-8.2-4.4-12.6-11.9-14c-11.6-2-11.9-1.7-11.9,9.2
		C408.9,165.3,408.9,167.3,408.9,169z"/>
	<path fill="#95C23D" d="M483.6,169.7c5.8-2.4,10.9-5.1,16.7-5.8c17.7-2,27.3,5.5,28,23.2c0.7,15,0,30,0.3,45.1
		c0,3.1-1.4,4.1-4.4,3.8c-4.4,0-8.9-0.3-13.3,0c-3.8,0.3-4.4-1.4-4.4-4.8c0-12.6,0-24.9,0-37.5c0-8.9-4.1-11.9-12.6-9.9
		c-8.9,2-9.9,3.8-9.9,12.6c0,11.6,0,22.9,0,34.5c0,3.8-1,5.5-4.8,5.1c-4.1-0.3-7.9-0.3-11.9,0c-4.1,0.3-5.8-1.4-5.8-5.5
		c0.3-7.2,0-14.7,0-22.2c0-21.8,0-43.7,0-65.5c0-8.2,0.3-8.5,8.2-9.2c3.1-0.3,6.1-0.7,9.2-1c3.8-0.7,5.1,1,5.1,4.8
		C483.6,148.2,483.6,158.8,483.6,169.7z"/>
	<path fill="#95C23D" d="M584.7,170.7c0-4.8,2.7-5.1,6.1-5.1c16.4,0.3,14.3-2.4,14.3,14c0,12.3,0,24.2,0,36.5c0,2.7-0.3,5.1,3.8,5.1
		c1.7,0,2.4,1.4,2.4,3.1c0,2.7,0.3,5.8,0,8.5c0,2-1.4,3.4-3.8,3.1c-7.2-0.3-15,2-20.5-4.8c-1.7-2-2.7,0-4.1,1
		c-9.9,6.5-20.1,7.9-31.1,2.7c-9.9-4.8-14.3-13.3-16-23.6c-2.4-14.7-0.7-28.7,10.6-39.6C557.3,161.5,572.4,160.8,584.7,170.7z
		 M582.9,200.4c0-3.8,0-7.5,0-11.3c0-1.7-0.3-3.1-1.7-4.1c-7.9-6.1-18.1-3.4-21.5,5.8c-2.7,7.5-2.4,15,0.7,22.5
		c2.4,5.5,7.9,7.9,13.7,6.5c6.5-1.7,8.9-4.8,8.9-11.3C582.9,205.9,582.9,203.1,582.9,200.4z"/>
	<path fill="#95C23D" d="M830.8,229.8c-4.8,4.1-10.2,6.5-16.4,7.5c-12.3,2-23.6-3.4-29.4-14c-8.2-14.7-5.8-37.9,4.8-49.8
		c9.6-10.6,26.3-13.3,36.9-4.8c0.7,0.7,2,2.4,2.7,0.3c0.7-1.7,1.7-3.1,3.8-3.1c4.8,0,9.6-0.7,14.3,0.3c2.4,0.7,1.7,3.1,1.7,5.1
		c0,15,0,29.7,0,44.7c0,2.7-0.3,5.5,3.8,5.5c2,0,2.4,1.7,2.4,3.4c0,2,0,4.4,0,6.5c0.3,3.4-1.4,4.8-4.8,4.8
		C839.6,236.6,836.2,235.6,830.8,229.8z M828,200.4c0-3.4,0-7.2,0-10.6c0-1.7-0.3-3.1-1.7-4.1c-7.2-6.1-18.1-4.1-21.5,4.8
		c-3.1,7.5-2.7,15.4,0.3,22.9c2.4,5.8,7.9,8.2,13.7,6.8c6.5-1.7,9.2-4.8,9.2-11.6C828,205.5,828,202.8,828,200.4z"/>
	<path fill="#0B6132" d="M176.1,200.8c0,22.5-14.3,37.2-36.9,37.5c-22.2,0.3-36.2-14-36.2-36.9s14.3-37.5,36.9-37.5
		C162.8,163.6,176.1,177.5,176.1,200.8z M125.9,200.8c0,4.1,0.3,7.9,2,11.6c2,5.1,5.5,8.2,11.3,8.2c5.8,0,10.2-2.4,12.3-7.9
		c3.1-7.9,3.1-16,0-23.9c-2-5.1-5.8-7.9-11.6-7.9s-9.6,2.4-11.6,7.5C126.6,192.6,125.9,196.7,125.9,200.8z"/>
	<path fill="#0B6132" d="M350.2,163.6c7.2,0.3,14.3,1,21.2,3.8c3.4,1.4,4.8,3.1,3.4,6.8c-3.1,10.6-3.1,10.6-13.7,7.9
		c-3.4-1-6.8-1.7-10.6-1.4c-2.4,0.3-4.8,1.4-5.1,3.8c-0.7,3.1,1.7,4.1,3.8,5.1c4.1,2,8.5,3.4,13,5.1c11.9,4.8,17.1,11.6,16,21.8
		c-1,11.3-8.5,18.4-20.5,20.5c-11.3,2.4-21.5,0-31.7-3.8c-2.4-1-3.4-2.4-2.7-5.5c3.1-11.9,2.7-11.9,14.3-8.5c4.1,1.4,8.2,2,12.6,2
		c3.1,0,6.1-0.3,6.8-3.8c1-3.8-2-5.1-4.8-6.1c-5.1-2-10.2-3.8-15.4-6.1c-10.9-4.8-16-14.3-13.3-24.9c2.7-9.9,10.6-14,19.8-15.7
		C345.7,163.9,347.8,163.9,350.2,163.6z"/>
	<path fill="#95C23D" d="M858.7,201.4c0-35.8,32.1-43.3,56-34.5c2,0.7,3.1,2,2.7,4.4c-0.3,1-0.3,2-0.7,3.1c-2,9.6-2,9.6-11.6,7.2
		c-9.6-2.4-17.4,0-21.2,6.8c-4.4,8.2-3.4,22.2,2.4,27.6c6.1,5.8,13.3,4.8,20.8,2.7c2.4-0.7,5.8-3.8,7.9-0.7
		c2.4,3.8,3.8,8.2,3.4,12.6c0,1.7-1.7,2-3.1,2.4c-11.6,4.8-23.6,5.5-35.5,1.4C865.9,230.8,858.7,218.8,858.7,201.4z"/>
	<path fill="#95C23D" d="M638.2,171.7c4.8-4.8,9.9-7.9,16-8.2c6.5-0.3,7.5,0.7,6.8,7.2c0,0.7,0,1.4-0.3,2c-0.7,3.1-0.7,6.8-2,9.2
		c-2,3.4-5.8,0.7-8.9,1.4c-7.9,1.4-10.6,4.1-10.6,11.9c0,11.3,0,22.2,0,33.5c0,6.8-0.7,7.5-7.2,7.5c-3.1,0-6.5,0-9.6,0
		c-3.8,0-5.5-1.4-5.5-5.1c0-20.1,0-40.3,0-60.1c0-3.4,1.4-5.5,5.1-5.1c3.1,0,6.5,0,9.6,0C636.2,165.3,638.6,166.6,638.2,171.7z"/>
</g>
</svg>
