<?xml version="1.0" encoding="iso-8859-1"?>
<!-- Generator: Adobe Illustrator 17.1.0, SVG Export Plug-In . SVG Version: 6.00 Build 0)  -->
<!DOCTYPE svg PUBLIC "-//W3C//DTD SVG 1.1//EN" "http://www.w3.org/Graphics/SVG/1.1/DTD/svg11.dtd">
<svg version="1.1"
	 id="svg3234" xmlns:dc="http://purl.org/dc/elements/1.1/" xmlns:cc="http://creativecommons.org/ns#" xmlns:rdf="http://www.w3.org/1999/02/22-rdf-syntax-ns#" xmlns:svg="http://www.w3.org/2000/svg"
	 xmlns="http://www.w3.org/2000/svg" xmlns:xlink="http://www.w3.org/1999/xlink" x="0px" y="0px" viewBox="-400 -173.4 1000 400"
	 style="enable-background:new -400 -173.4 1000 400;" xml:space="preserve">
<title  id="title4182">Tesco Logo</title>
<g id="g4178">
	<path id="path3996" style="fill:#0054A4;stroke:#FFFFFF;stroke-width:7.870000e-002;stroke-miterlimit:11.474;" d="M-322.8,113.2
		c-20,0-36.1,11.4-43.9,19.5c0,0-19,18.8-31.9,25.3c-0.6,0.3-0.6,0.9,0.2,0.9h116.2c23,0,33.8-7.8,47.4-20c0,0,19.9-18.5,33.5-24.4
		c1.4-0.5,1-1.4,0-1.4C-201.2,113.2-322.8,113.2-322.8,113.2z M-123.1,113.2c-20,0-36.1,11.4-43.9,19.5c0,0-19,18.8-31.8,25.3
		c-0.6,0.3-0.6,0.9,0.2,0.9h116.5c23,0,33.8-7.8,47.4-20c0,0,19.6-18.5,33.2-24.4c1.4-0.5,1.3-1.4,0.2-1.4
		C-1.3,113.2-123.1,113.2-123.1,113.2z M76.8,113.2c-20,0-36.1,11.4-43.9,19.5c0,0-19,18.8-31.9,25.3c-0.6,0.3-0.5,0.9,0.2,0.9
		h116.5c23,0,33.5-7.8,47.2-20c0,0,19.9-18.5,33.5-24.4c1.4-0.5,1.3-1.4,0.2-1.4C198.6,113.2,76.8,113.2,76.8,113.2z M276.5,113.2
		c-20,0-35.9,11.4-43.7,19.5c0,0-19.2,18.8-32.1,25.3c-0.6,0.3-0.5,0.9,0.2,0.9h116.5c23,0,33.8-7.8,47.4-20
		c0,0,19.9-18.5,33.5-24.4c1.4-0.5,1-1.4,0-1.4C398.3,113.2,276.5,113.2,276.5,113.2z M476.4,113.2c-20,0-36.1,11.4-43.9,19.5
		c0,0-19,18.8-31.9,25.3c-0.6,0.3-0.5,0.9,0.2,0.9h116.5c23,0,33.8-7.8,47.4-20c0,0,19.6-18.5,33.2-24.4c1.4-0.5,1.3-1.4,0.2-1.4
		C598.2,113.2,476.4,113.2,476.4,113.2z"/>
	<path id="path4006" style="fill:#F02E25;stroke:#FFFFFF;stroke-width:3.000000e-002;stroke-miterlimit:3.864;" d="M84-107.9
		C41.5-107.9,0.1-95.2,0.1-53c0,73.2,127.6,34.5,127.6,79.3c0,14.6-22.6,20.5-40.9,20.5c-32.8,0-55.5-4.9-84.2-22.1v36.7
		C24,68.4,53.1,71.8,84.7,71.8c44.1,0,85.3-11.4,85.3-54.6c0-76.4-127.6-42.1-127.6-79.5c0-15.1,20.5-20.2,38.4-20.2
		c30.1,0,62.6,8.8,80.4,25.3v-39.1C138.1-103.5,107.4-107.9,84-107.9z M309.5-107.4c-76.6,0-127.4,36.8-127.4,93
		c0,51.5,46.6,86,116.2,86c22.6,0,42.7-3,66.2-8.6V19.5c-16.6,17.6-36.4,24.6-57.6,24.6c-41.1,0-69.3-25.6-69.3-62.5
		c0-36.4,29.2-63,70-63c22.2,0,40,8.1,54.4,22.1v-43.5C347.1-105.8,328.4-107.4,309.5-107.4z M488.3-107.4
		c-66,0-112.7,38-112.7,91.6c0,52.5,41.9,87.4,104.4,87.4c66.3,0,112-37.1,112-90.9C591.9-72.1,550.4-107.4,488.3-107.4L488.3-107.4
		z M-392.1-102.1v41.1c14.4-11.1,44.4-15.3,77.2-15.6V35.8c0,16.3-1.4,21-8.4,29.5h64.9c-7.3-8.5-8.4-13.2-8.4-29.5V-77.4
		c28.4,0.2,62.4,5.4,76.7,16.5V-102L-392.1-102.1C-392.1-102-392.1-102.1-392.1-102.1z M-172.6-102.1c6.8,8.5,8.1,13.4,8.1,29.8
		V35.8c0,16.3-1.2,21.2-7.7,29.5h156.7V24.6C-37,39.9-77.9,40-94.5,39.8h-22.8V-7h16.7c11.3,0,31.8,1.3,43.7,4.9V-37
		c-11.7,3.8-32.4,4.9-43.7,4.9h-16.7v-44.4h22.8c20.4,0,55.8,4.2,69,15.3V-102L-172.6-102.1C-172.6-102-172.6-102.1-172.6-102.1z
		 M483.8-82.1c34.6,0,57.4,28.6,57.4,63.9s-22.8,63.9-57.4,63.9c-35.2,0-57.7-28.6-57.7-63.9C426.2-53.4,448.7-82.1,483.8-82.1z"/>
</g>
</svg>
